<?xml version="1.0" encoding="UTF-8"?>
<svg width="753px" height="177px" viewBox="0 0 753 177" version="1.1" xmlns="http://www.w3.org/2000/svg" xmlns:xlink="http://www.w3.org/1999/xlink">
    <title>Abp_logo</title>
    <g id="Landings" stroke="none" stroke-width="1" fill="none" fill-rule="evenodd">
        <g id="Abp_logo">
            <g id="logo-abp">
                <polygon id="Fill-1" fill="#D8D9D9" points="52.4968971 0.948195938 0.948023138 52.4970699 0.948023138 125.399322 52.4968971 176.948196 125.397376 176.948196 176.948023 125.399322 176.948023 52.4970699 125.397376 0.948195938"></polygon>
                <polygon id="Fill-2" fill="#FFFFFF" points="53.8995185 4.33270378 4.33183978 53.8986545 4.33183978 123.996701 53.8995185 173.562651 123.997565 173.562651 173.563515 123.996701 173.563515 53.8986545 123.997565 4.33270378"></polygon>
                <polygon id="Fill-3" fill="#ED1E45" points="57.168376 165.670012 12.2248252 120.726461 12.2248252 57.1688944 57.168376 12.2253436 120.72767 12.2253436 165.669493 57.1688944 165.669493 120.726461 120.72767 165.670012"></polygon>
                <path d="M47.0334834,93.2709606 L45.8325235,87.7413608 C45.0842995,84.7329128 44.3637235,81.5378409 43.6707955,78.157873 C42.9761396,74.7796331 42.2814836,71.5223532 41.5885556,68.3894893 L41.2688756,68.3894893 C40.6277876,71.5845612 39.9728756,74.8556651 39.3075957,78.204529 C38.6388597,81.5533929 37.9321077,84.7329128 37.1856117,87.7413608 L35.9034357,93.2709606 L47.0334834,93.2709606 Z M49.4354034,103.868784 L33.5015158,103.868784 L30.2995319,118.152432 L18.2899322,118.152432 L34.6229878,58.0681456 L48.7943154,58.0681456 L65.129099,118.152432 L52.6373873,118.152432 L49.4354034,103.868784 Z" id="Fill-4" fill="#FFFFFF"></path>
                <path d="M90.8298151,107.646883 C97.2873509,107.646883 100.516983,104.913188 100.516983,99.4457957 C100.516983,96.8036837 99.7169189,94.8838758 98.1150629,93.6863718 C96.5132069,92.4871398 94.083639,91.8892519 90.8298151,91.8892519 L84.1839273,91.8892519 L84.1839273,107.646883 L90.8298151,107.646883 Z M89.7083431,82.3040361 C92.590647,82.3040361 94.684983,81.6456681 95.993079,80.3237482 C97.3011749,79.0035562 97.9560869,77.2064362 97.9560869,74.9323883 C97.9560869,72.6600684 97.2873509,71.0322924 95.953335,70.0490604 C94.619319,69.0658285 92.562999,68.5733485 89.7878311,68.5733485 L84.1839273,68.5733485 L84.1839273,82.3040361 L89.7083431,82.3040361 Z M72.4145196,58.0688368 L90.2682151,58.0688368 C92.991543,58.0688368 95.512695,58.2986607 97.8351269,58.7600367 C100.157559,59.2214127 102.184503,60.0353007 103.921143,61.2017007 C105.654327,62.3698286 107.015991,63.9060206 108.004407,65.8085486 C108.991095,67.7145325 109.485303,70.1112684 109.485303,72.9970284 C109.485303,74.3500523 109.310775,75.7013483 108.965175,77.0526443 C108.616119,78.4039402 108.095991,79.6636522 107.403063,80.8300522 C106.708407,81.9981801 105.801207,83.0418921 104.681463,83.9629161 C103.559991,84.885668 102.251895,85.561316 100.757175,85.991588 L100.757175,86.359652 C104.493111,87.157988 107.309751,88.6959079 109.205367,90.9664999 C111.099255,93.2405478 112.046199,96.4045157 112.046199,100.458404 C112.046199,103.530788 111.526071,106.172899 110.485815,108.384739 C109.445559,110.596579 108.004407,112.424803 106.162359,113.867683 C104.320311,115.312291 102.170679,116.387107 99.7169189,117.092131 C97.2614309,117.800611 94.619319,118.153123 91.7905831,118.153123 L72.4145196,118.153123 L72.4145196,58.0688368 Z" id="Fill-6" fill="#FFFFFF"></path>
                <path d="M138.4687,87.0045416 C144.874396,87.0045416 148.07638,83.8111977 148.07638,77.4210538 C148.07638,74.2881899 147.262492,72.07635 145.634716,70.785534 C144.005212,69.4947181 141.617116,68.8501741 138.4687,68.8501741 L131.904028,68.8501741 L131.904028,87.0045416 L138.4687,87.0045416 Z M120.132893,58.0691824 L139.189276,58.0691824 C142.018012,58.0691824 144.673948,58.3905903 147.155356,59.0368623 C149.638492,59.6814063 151.80022,60.7562223 153.64054,62.2613102 C155.482588,63.7681262 156.935836,65.7639662 158.005468,68.2522861 C159.071644,70.738878 159.605596,73.7957099 159.605596,77.4210538 C159.605596,80.9219818 159.05782,83.9632617 157.963996,86.5431656 C156.870172,89.1247975 155.389276,91.2433255 153.521308,92.9022054 C151.651612,94.5610854 149.489884,95.7914214 147.036124,96.5880293 C144.578908,97.3880933 141.964444,97.7872613 139.189276,97.7872613 L131.904028,97.7872613 L131.904028,118.151741 L120.132893,118.151741 L120.132893,58.0691824 Z" id="Fill-8" fill="#FFFFFF"></path>
            </g>
            <path d="M248.8,124 L255.1,104 L279,104 L285.2,124 L294.1,124 L271.9,58.4 L262.5,58.4 L240.3,124 L248.8,124 Z M276.9,97.3 L257.2,97.3 L260.3,87.3 C261.5,83.6333333 262.633333,79.9833333 263.7,76.35 C264.766667,72.7166667 265.8,69 266.8,65.2 L266.8,65.2 L267.2,65.2 C268.266667,69 269.333333,72.7166667 270.4,76.35 C271.466667,79.9833333 272.6,83.6333333 273.8,87.3 L273.8,87.3 L276.9,97.3 Z M317.771428,125.2 C320.638095,125.2 323.321428,124.516667 325.821428,123.15 C328.321428,121.783333 330.538095,120.166667 332.471428,118.3 L332.471428,118.3 L332.771428,118.3 L333.471428,124 L340.271428,124 L340.271428,52.8 L331.971428,52.8 L331.971428,71.5 L332.371428,79.8 C330.238095,78.0666667 328.138095,76.7 326.071428,75.7 C324.004762,74.7 321.571428,74.2 318.771428,74.2 C315.971428,74.2 313.304762,74.8 310.771428,76 C308.238095,77.2 306.004762,78.9 304.071428,81.1 C302.138095,83.3 300.588095,85.9833333 299.421428,89.15 C298.254762,92.3166667 297.671428,95.8666667 297.671428,99.8 C297.671428,107.933333 299.488095,114.2 303.121428,118.6 C306.754762,123 311.638095,125.2 317.771428,125.2 Z M319.571428,118.3 C315.304762,118.3 312.004762,116.666667 309.671428,113.4 C307.338095,110.133333 306.171428,105.566667 306.171428,99.7 C306.171428,96.9 306.538095,94.3666667 307.271428,92.1 C308.004762,89.8333333 309.004762,87.8833333 310.271428,86.25 C311.538095,84.6166667 313.021428,83.35 314.721428,82.45 C316.421428,81.55 318.238095,81.1 320.171428,81.1 C322.171428,81.1 324.121428,81.4833333 326.021428,82.25 C327.921428,83.0166667 329.904762,84.3333333 331.971428,86.2 L331.971428,86.2 L331.971428,111.6 C329.971428,113.866667 327.971428,115.55 325.971428,116.65 C323.971428,117.75 321.838095,118.3 319.571428,118.3 Z M376.742857,125.2 C379.542857,125.2 382.209523,124.616667 384.742857,123.45 C387.27619,122.283333 389.509523,120.566667 391.442857,118.3 C393.37619,116.033333 394.909523,113.266667 396.042857,110 C397.17619,106.733333 397.742857,103.033333 397.742857,98.9 C397.742857,95.1666667 397.32619,91.7833333 396.492857,88.75 C395.659523,85.7166667 394.42619,83.1166667 392.792857,80.95 C391.159523,78.7833333 389.142857,77.1166667 386.742857,75.95 C384.342857,74.7833333 381.57619,74.2 378.442857,74.2 C375.709523,74.2 373.042857,74.85 370.442857,76.15 C367.842857,77.45 365.442857,79.0666667 363.242857,81 L363.242857,81 L363.442857,72.2 L363.442857,52.8 L355.242857,52.8 L355.242857,124 L361.842857,124 L362.542857,119 L362.842857,119 C364.97619,120.933333 367.259523,122.45 369.692857,123.55 C372.12619,124.65 374.47619,125.2 376.742857,125.2 Z M375.342857,118.3 C373.742857,118.3 371.892857,117.916667 369.792857,117.15 C367.692857,116.383333 365.57619,115.066667 363.442857,113.2 L363.442857,113.2 L363.442857,87.7 C368.17619,83.3 372.509523,81.1 376.442857,81.1 C378.709523,81.1 380.659523,81.5333333 382.292857,82.4 C383.92619,83.2666667 385.259523,84.4833333 386.292857,86.05 C387.32619,87.6166667 388.07619,89.5 388.542857,91.7 C389.009523,93.9 389.242857,96.3333333 389.242857,99 C389.242857,102 388.892857,104.7 388.192857,107.1 C387.492857,109.5 386.52619,111.516667 385.292857,113.15 C384.059523,114.783333 382.592857,116.05 380.892857,116.95 C379.192857,117.85 377.342857,118.3 375.342857,118.3 Z M417.814285,125.2 C418.947619,125.2 419.880952,125.133333 420.614285,125 C421.347619,124.866667 421.980952,124.666667 422.514285,124.4 L422.514285,124.4 L421.414285,118.2 C420.947619,118.333333 420.597619,118.4 420.364285,118.4 L420.364285,118.4 L419.614285,118.4 C419.014285,118.4 418.480952,118.133333 418.014285,117.6 C417.547619,117.066667 417.314285,116.133333 417.314285,114.8 L417.314285,114.8 L417.314285,52.8 L409.114285,52.8 L409.114285,114.2 C409.114285,117.8 409.780952,120.533333 411.114285,122.4 C412.447619,124.266667 414.680952,125.2 417.814285,125.2 Z M452.085714,125.2 C455.085714,125.2 457.935714,124.633333 460.635714,123.5 C463.335714,122.366667 465.719047,120.716667 467.785714,118.55 C469.85238,116.383333 471.50238,113.716667 472.735714,110.55 C473.969047,107.383333 474.585714,103.8 474.585714,99.8 C474.585714,95.7333333 473.969047,92.1166667 472.735714,88.95 C471.50238,85.7833333 469.85238,83.1 467.785714,80.9 C465.719047,78.7 463.335714,77.0333333 460.635714,75.9 C457.935714,74.7666667 455.085714,74.2 452.085714,74.2 C449.085714,74.2 446.235714,74.7666667 443.535714,75.9 C440.835714,77.0333333 438.45238,78.7 436.385714,80.9 C434.319047,83.1 432.669047,85.7833333 431.435714,88.95 C430.20238,92.1166667 429.585714,95.7333333 429.585714,99.8 C429.585714,103.8 430.20238,107.383333 431.435714,110.55 C432.669047,113.716667 434.319047,116.383333 436.385714,118.55 C438.45238,120.716667 440.835714,122.366667 443.535714,123.5 C446.235714,124.633333 449.085714,125.2 452.085714,125.2 Z M452.085714,118.4 C450.019047,118.4 448.119047,117.95 446.385714,117.05 C444.65238,116.15 443.169047,114.883333 441.935714,113.25 C440.70238,111.616667 439.75238,109.666667 439.085714,107.4 C438.419047,105.133333 438.085714,102.6 438.085714,99.8 C438.085714,97 438.419047,94.45 439.085714,92.15 C439.75238,89.85 440.70238,87.8666667 441.935714,86.2 C443.169047,84.5333333 444.65238,83.25 446.385714,82.35 C448.119047,81.45 450.019047,81 452.085714,81 C454.15238,81 456.05238,81.45 457.785714,82.35 C459.519047,83.25 461.00238,84.5333333 462.235714,86.2 C463.469047,87.8666667 464.419047,89.85 465.085714,92.15 C465.75238,94.45 466.085714,97 466.085714,99.8 C466.085714,102.6 465.75238,105.133333 465.085714,107.4 C464.419047,109.666667 463.469047,111.616667 462.235714,113.25 C461.00238,114.883333 459.519047,116.15 457.785714,117.05 C456.05238,117.95 454.15238,118.4 452.085714,118.4 Z M505.157142,125.2 C508.090475,125.2 510.890475,124.65 513.557142,123.55 C516.223809,122.45 518.657142,120.933333 520.857142,119 L520.857142,119 L517.257142,113.5 C515.723809,114.833333 514.007142,115.983333 512.107142,116.95 C510.207142,117.916667 508.123809,118.4 505.857142,118.4 C503.657142,118.4 501.623809,117.95 499.757142,117.05 C497.890475,116.15 496.307142,114.883333 495.007142,113.25 C493.707142,111.616667 492.690475,109.666667 491.957142,107.4 C491.223809,105.133333 490.857142,102.6 490.857142,99.8 C490.857142,97 491.240475,94.45 492.007142,92.15 C492.773809,89.85 493.823809,87.8666667 495.157142,86.2 C496.490475,84.5333333 498.090475,83.25 499.957142,82.35 C501.823809,81.45 503.857142,81 506.057142,81 C507.990475,81 509.740475,81.4 511.307142,82.2 C512.873809,83 514.357142,84.0333333 515.757142,85.3 L515.757142,85.3 L519.957142,79.9 C518.223809,78.3666667 516.223809,77.0333333 513.957142,75.9 C511.690475,74.7666667 508.957142,74.2 505.757142,74.2 C502.623809,74.2 499.640475,74.7666667 496.807142,75.9 C493.973809,77.0333333 491.490475,78.7 489.357142,80.9 C487.223809,83.1 485.523809,85.7833333 484.257142,88.95 C482.990475,92.1166667 482.357142,95.7333333 482.357142,99.8 C482.357142,103.8 482.940475,107.383333 484.107142,110.55 C485.273809,113.716667 486.873809,116.383333 488.907142,118.55 C490.940475,120.716667 493.357142,122.366667 496.157142,123.5 C498.957142,124.633333 501.957142,125.2 505.157142,125.2 Z M538.22857,124 L538.22857,111.2 L547.32857,100.6 L561.52857,124 L570.52857,124 L552.02857,94.9 L568.32857,75.4 L559.22857,75.4 L538.52857,101 L538.22857,101 L538.22857,52.8 L530.12857,52.8 L530.12857,124 L538.22857,124 Z M592.399999,124 L592.399999,101.9 L600.499999,101.9 C603.966665,101.9 607.233332,101.466667 610.299999,100.6 C613.366665,99.7333333 616.066665,98.4 618.399999,96.6 C620.733332,94.8 622.583332,92.5 623.949999,89.7 C625.316665,86.9 625.999999,83.6 625.999999,79.8 C625.999999,75.8666667 625.316665,72.55 623.949999,69.85 C622.583332,67.15 620.733332,64.9833333 618.399999,63.35 C616.066665,61.7166667 613.333332,60.55 610.199999,59.85 C607.066665,59.15 603.699999,58.8 600.099999,58.8 L600.099999,58.8 L577.699999,58.8 L577.699999,124 L592.399999,124 Z M599.599999,90.2 L592.399999,90.2 L592.399999,70.5 L599.199999,70.5 C603.199999,70.5 606.266665,71.2 608.399999,72.6 C610.533332,74 611.599999,76.4 611.599999,79.8 C611.599999,86.7333333 607.599999,90.2 599.599999,90.2 L599.599999,90.2 Z M648.226372,125.2 C649.893039,125.2 651.343039,125.083333 652.576372,124.85 C653.809706,124.616667 654.826372,124.333333 655.626372,124 L655.626372,124 L653.826372,113.1 C653.426372,113.233333 653.109706,113.3 652.876372,113.3 L652.876372,113.3 L652.026372,113.3 C651.426372,113.3 650.843039,113 650.276372,112.4 C649.709706,111.8 649.426372,110.733333 649.426372,109.2 L649.426372,109.2 L649.426372,53.9 L634.726372,53.9 L634.726372,108.6 C634.726372,111.133333 634.959706,113.416667 635.426372,115.45 C635.893039,117.483333 636.643039,119.216667 637.676372,120.65 C638.709706,122.083333 640.093039,123.2 641.826372,124 C643.559706,124.8 645.693039,125.2 648.226372,125.2 Z M676.852746,125.2 C680.252746,125.2 683.169413,124.483333 685.602746,123.05 C688.036079,121.616667 690.319413,119.633333 692.452746,117.1 L692.452746,117.1 L692.752746,117.1 L693.852746,124 L705.852746,124 L705.852746,74.4 L691.152746,74.4 L691.152746,107.2 C689.686079,109.133333 688.319413,110.533333 687.052746,111.4 C685.786079,112.266667 684.219413,112.7 682.352746,112.7 C680.219413,112.7 678.652746,112.033333 677.652746,110.7 C676.652746,109.366667 676.152746,106.9 676.152746,103.3 L676.152746,103.3 L676.152746,74.4 L661.452746,74.4 L661.452746,105.2 C661.452746,111.466667 662.669413,116.366667 665.102746,119.9 C667.536079,123.433333 671.452746,125.2 676.852746,125.2 Z M731.97912,125.2 C735.312453,125.2 738.245786,124.783333 740.77912,123.95 C743.312453,123.116667 745.445786,121.983333 747.17912,120.55 C748.912453,119.116667 750.212453,117.433333 751.07912,115.5 C751.945786,113.566667 752.37912,111.466667 752.37912,109.2 C752.37912,106.933333 751.97912,104.983333 751.17912,103.35 C750.37912,101.716667 749.32912,100.333333 748.02912,99.2 C746.72912,98.0666667 745.295786,97.1166667 743.72912,96.35 C742.162453,95.5833333 740.57912,94.9 738.97912,94.3 C737.712453,93.8333333 736.495786,93.3833333 735.32912,92.95 C734.162453,92.5166667 733.12912,92.0666667 732.22912,91.6 C731.32912,91.1333333 730.612453,90.6166667 730.07912,90.05 C729.545786,89.4833333 729.27912,88.8 729.27912,88 C729.27912,85.4 731.145786,84.1 734.87912,84.1 C736.612453,84.1 738.345786,84.4666667 740.07912,85.2 C741.812453,85.9333333 743.57912,86.9666667 745.37912,88.3 L745.37912,88.3 L751.97912,79.5 C749.845786,77.9 747.345786,76.45 744.47912,75.15 C741.612453,73.85 738.27912,73.2 734.47912,73.2 C731.612453,73.2 729.012453,73.5833333 726.67912,74.35 C724.345786,75.1166667 722.345786,76.1666667 720.67912,77.5 C719.012453,78.8333333 717.72912,80.4666667 716.82912,82.4 C715.92912,84.3333333 715.47912,86.4333333 715.47912,88.7 C715.47912,90.7666667 715.87912,92.5833333 716.67912,94.15 C717.47912,95.7166667 718.512453,97.0833333 719.77912,98.25 C721.045786,99.4166667 722.445786,100.4 723.97912,101.2 C725.512453,102 727.045786,102.7 728.57912,103.3 C729.845786,103.833333 731.07912,104.316667 732.27912,104.75 C733.47912,105.183333 734.562453,105.666667 735.52912,106.2 C736.495786,106.733333 737.262453,107.316667 737.82912,107.95 C738.395786,108.583333 738.67912,109.3 738.67912,110.1 C738.67912,111.433333 738.17912,112.466667 737.17912,113.2 C736.17912,113.933333 734.57912,114.3 732.37912,114.3 C730.245786,114.3 728.145786,113.866667 726.07912,113 C724.012453,112.133333 721.845786,110.833333 719.57912,109.1 L719.57912,109.1 L712.97912,118.3 C715.512453,120.366667 718.495786,122.033333 721.92912,123.3 C725.362453,124.566667 728.712453,125.2 731.97912,125.2 Z" id="AdblockPlus" fill="#000000" fill-rule="nonzero"></path>
        </g>
    </g>
</svg>