<?xml version="1.0" encoding="UTF-8"?>
<svg width="92px" height="40px" viewBox="0 0 92 40" version="1.1" xmlns="http://www.w3.org/2000/svg" xmlns:xlink="http://www.w3.org/1999/xlink">
    <!-- Generator: Sketch 58 (84663) - https://sketch.com -->
    <title>ABP-outlined</title>
    <desc>Created with Sketch.</desc>
    <g id="Share-Numbers-+-block-element" stroke="none" stroke-width="1" fill="none" fill-rule="evenodd">
        <path d="M19.8591096,0 L30.4934587,39.9995399 L22.3610447,39.9995399 L20.2764738,30.4905756 L9.903118,30.4905756 L7.8185471,39.9995399 L0,39.9995399 L10.6332241,0 L19.8591096,0 Z M46.8596464,0.000460148283 C48.6326004,0.000460148283 50.2739328,0.153459452 51.7858936,0.460608431 C53.2978544,0.76775741 54.6174451,1.30958201 55.7480408,2.08608224 C56.8763865,2.86373284 57.7628635,3.8864124 58.4063468,5.15297054 C59.0487051,6.42182943 59.3704468,8.01739361 59.3704468,9.93851269 C59.3704468,10.8392529 59.2568247,11.7388428 59.0318306,12.6384327 C58.8045865,13.5380226 58.4659702,14.3766429 58.014857,15.1531431 C57.5626187,15.9307937 56.972009,16.6256176 56.2430279,17.2387652 C55.5129219,17.8530631 54.661319,18.3028581 53.6882192,18.5893004 L53.6882192,18.8343294 C56.1204061,19.3658006 57.9541085,20.3896306 59.1882015,21.9012177 C60.4211695,23.4151055 61.0376535,25.5214343 61.0376535,28.220204 C61.0376535,30.2655631 60.6990373,32.0244799 60.0218049,33.4969544 C59.3445724,34.9694289 58.4063468,36.1865211 57.2071279,37.1470806 C56.007909,38.1087906 54.6084454,38.8243211 53.0109868,39.2936724 C51.4124033,39.7653244 49.6923229,40 47.8507457,40 L35.2364481,40 L35.2364481,0.000460148283 L46.8596464,0.000460148283 Z M78.7084699,0.000690222424 C80.5500471,0.000690222424 82.2791273,0.214659174 83.8945853,0.644897818 C85.5111684,1.07398609 86.9185069,1.78951667 88.1166008,2.79148956 C89.3158197,3.79461281 90.2619201,5.12329098 90.958277,6.7798248 C91.652384,8.43520825 92,10.470214 92,12.8836918 C92,15.2143428 91.6433843,17.2389953 90.9312777,18.9564987 C90.2191712,20.6751526 89.2550712,22.0855071 88.0389778,23.1898629 C86.8217594,24.2942188 85.4144209,25.1132828 83.8169624,25.6436037 C82.2172539,26.1762253 80.515173,26.4419609 78.7084699,26.4419609 L73.965593,26.4419609 L73.965593,39.9990797 L66.3022919,39.9990797 L66.3022919,0.000690222424 L78.7084699,0.000690222424 Z M47.225262,22.5155156 L42.8986242,22.5155156 L42.8986242,33.0057461 L47.225262,33.0057461 C51.4292779,33.0057461 53.5318483,31.1858596 53.5318483,27.5460867 C53.5318483,25.7871699 53.0109868,24.5091081 51.9681389,23.7119012 C50.9252909,22.9135439 49.343582,22.5155156 47.225262,22.5155156 Z M15.1679814,6.87116423 L14.9598618,6.87116423 L14.3273469,10.0998234 C14.1144462,11.1887931 13.8995768,12.2905606 13.6830199,13.4052698 C13.2476562,15.6346883 12.7875431,17.7513704 12.3015558,19.7541658 L11.4668274,23.435352 L18.7127644,23.435352 L17.9309097,19.7541658 C17.5249827,18.0851696 17.1315554,16.3298956 16.7506278,14.4890096 L16.5235712,13.3742098 C16.0713329,11.1252351 15.6190947,8.95678632 15.1679814,6.87116423 Z M78.2393571,7.17785306 L73.965593,7.17785306 L73.965593,19.2636477 L78.2393571,19.2636477 C82.4096239,19.2636477 84.4941948,17.1377626 84.4941948,12.8836918 C84.4941948,10.7980697 83.9643335,9.32559517 82.904611,8.46626825 C81.8437636,7.60694134 80.2890539,7.17785306 78.2393571,7.17785306 Z M46.5469046,6.99356368 L42.8986242,6.99356368 L42.8986242,16.1344093 L46.4951559,16.1344093 C48.3716072,16.1344093 49.7350718,15.6961181 50.5866747,14.8160845 C51.4382776,13.9372013 51.8646416,12.7408157 51.8646416,11.2269279 C51.8646416,9.7141904 51.4292779,8.63054119 50.5608004,7.97598026 C49.6923229,7.32141933 48.3536077,6.99356368 46.5469046,6.99356368 Z" id="ABP-outlined" fill="#000000"></path>
    </g>
</svg>